%YAML 1.1
%TAG !u! tag:unity3d.com,2011:
--- !u!1001 &819674039877982065
PrefabInstance:
  m_ObjectHideFlags: 0
  serializedVersion: 2
  m_Modification:
    m_TransformParent: {fileID: 950693567131198107}
    m_Modifications:
    - target: {fileID: 5356906864101262573, guid: d3f9bdaeba1a14d4ca0137beb69c229e,
        type: 3}
      propertyPath: m_Name
      value: ShotGun
      objectReference: {fileID: 0}
    - target: {fileID: 8974111512914184520, guid: d3f9bdaeba1a14d4ca0137beb69c229e,
        type: 3}
      propertyPath: m_RootOrder
      value: 3
      objectReference: {fileID: 0}
    - target: {fileID: 8974111512914184520, guid: d3f9bdaeba1a14d4ca0137beb69c229e,
        type: 3}
      propertyPath: m_LocalPosition.x
      value: 0
      objectReference: {fileID: 0}
    - target: {fileID: 8974111512914184520, guid: d3f9bdaeba1a14d4ca0137beb69c229e,
        type: 3}
      propertyPath: m_LocalPosition.y
      value: 0
      objectReference: {fileID: 0}
    - target: {fileID: 8974111512914184520, guid: d3f9bdaeba1a14d4ca0137beb69c229e,
        type: 3}
      propertyPath: m_LocalPosition.z
      value: 0
      objectReference: {fileID: 0}
    - target: {fileID: 8974111512914184520, guid: d3f9bdaeba1a14d4ca0137beb69c229e,
        type: 3}
      propertyPath: m_LocalRotation.w
      value: 1
      objectReference: {fileID: 0}
    - target: {fileID: 8974111512914184520, guid: d3f9bdaeba1a14d4ca0137beb69c229e,
        type: 3}
      propertyPath: m_LocalRotation.x
      value: 0
      objectReference: {fileID: 0}
    - target: {fileID: 8974111512914184520, guid: d3f9bdaeba1a14d4ca0137beb69c229e,
        type: 3}
      propertyPath: m_LocalRotation.y
      value: 0
      objectReference: {fileID: 0}
    - target: {fileID: 8974111512914184520, guid: d3f9bdaeba1a14d4ca0137beb69c229e,
        type: 3}
      propertyPath: m_LocalRotation.z
      value: 0
      objectReference: {fileID: 0}
    - target: {fileID: 8974111512914184520, guid: d3f9bdaeba1a14d4ca0137beb69c229e,
        type: 3}
      propertyPath: m_LocalEulerAnglesHint.x
      value: 0
      objectReference: {fileID: 0}
    - target: {fileID: 8974111512914184520, guid: d3f9bdaeba1a14d4ca0137beb69c229e,
        type: 3}
      propertyPath: m_LocalEulerAnglesHint.y
      value: 0
      objectReference: {fileID: 0}
    - target: {fileID: 8974111512914184520, guid: d3f9bdaeba1a14d4ca0137beb69c229e,
        type: 3}
      propertyPath: m_LocalEulerAnglesHint.z
      value: 0
      objectReference: {fileID: 0}
    m_RemovedComponents: []
  m_SourcePrefab: {fileID: 100100000, guid: d3f9bdaeba1a14d4ca0137beb69c229e, type: 3}
--- !u!114 &5443390982990552277 stripped
MonoBehaviour:
  m_CorrespondingSourceObject: {fileID: 4677795737478499236, guid: d3f9bdaeba1a14d4ca0137beb69c229e,
    type: 3}
  m_PrefabInstance: {fileID: 819674039877982065}
  m_PrefabAsset: {fileID: 0}
  m_GameObject: {fileID: 0}
  m_Enabled: 1
  m_EditorHideFlags: 0
  m_Script: {fileID: 11500000, guid: d3a5fbffb72e73440aaef82cfc07a827, type: 3}
  m_Name: 
  m_EditorClassIdentifier: 
--- !u!1001 &2264744309706660709
PrefabInstance:
  m_ObjectHideFlags: 0
  serializedVersion: 2
  m_Modification:
    m_TransformParent: {fileID: 0}
    m_Modifications:
    - target: {fileID: 1323062340004903930, guid: 7de515900ebc97140a80c9bba8298d9a,
        type: 3}
      propertyPath: m_Materials.Array.data[0]
      value: 
      objectReference: {fileID: 2100000, guid: f75df39657879ac499520b863a158c1c, type: 2}
    - target: {fileID: 1323062340953684477, guid: 7de515900ebc97140a80c9bba8298d9a,
        type: 3}
      propertyPath: weapon
      value: 
      objectReference: {fileID: 5443390982990552277}
    - target: {fileID: 1323062340953684478, guid: 7de515900ebc97140a80c9bba8298d9a,
        type: 3}
      propertyPath: m_RootOrder
      value: 0
      objectReference: {fileID: 0}
    - target: {fileID: 1323062340953684478, guid: 7de515900ebc97140a80c9bba8298d9a,
        type: 3}
      propertyPath: m_LocalPosition.x
      value: 0
      objectReference: {fileID: 0}
    - target: {fileID: 1323062340953684478, guid: 7de515900ebc97140a80c9bba8298d9a,
        type: 3}
      propertyPath: m_LocalPosition.y
      value: 0
      objectReference: {fileID: 0}
    - target: {fileID: 1323062340953684478, guid: 7de515900ebc97140a80c9bba8298d9a,
        type: 3}
      propertyPath: m_LocalPosition.z
      value: 0
      objectReference: {fileID: 0}
    - target: {fileID: 1323062340953684478, guid: 7de515900ebc97140a80c9bba8298d9a,
        type: 3}
      propertyPath: m_LocalRotation.w
      value: 1
      objectReference: {fileID: 0}
    - target: {fileID: 1323062340953684478, guid: 7de515900ebc97140a80c9bba8298d9a,
        type: 3}
      propertyPath: m_LocalRotation.x
      value: 0
      objectReference: {fileID: 0}
    - target: {fileID: 1323062340953684478, guid: 7de515900ebc97140a80c9bba8298d9a,
        type: 3}
      propertyPath: m_LocalRotation.y
      value: 0
      objectReference: {fileID: 0}
    - target: {fileID: 1323062340953684478, guid: 7de515900ebc97140a80c9bba8298d9a,
        type: 3}
      propertyPath: m_LocalRotation.z
      value: 0
      objectReference: {fileID: 0}
    - target: {fileID: 1323062340953684478, guid: 7de515900ebc97140a80c9bba8298d9a,
        type: 3}
      propertyPath: m_LocalEulerAnglesHint.x
      value: 0
      objectReference: {fileID: 0}
    - target: {fileID: 1323062340953684478, guid: 7de515900ebc97140a80c9bba8298d9a,
        type: 3}
      propertyPath: m_LocalEulerAnglesHint.y
      value: 0
      objectReference: {fileID: 0}
    - target: {fileID: 1323062340953684478, guid: 7de515900ebc97140a80c9bba8298d9a,
        type: 3}
      propertyPath: m_LocalEulerAnglesHint.z
      value: 0
      objectReference: {fileID: 0}
    - target: {fileID: 1323062340953684479, guid: 7de515900ebc97140a80c9bba8298d9a,
        type: 3}
      propertyPath: m_Name
      value: Bomber
      objectReference: {fileID: 0}
    m_RemovedComponents: []
  m_SourcePrefab: {fileID: 100100000, guid: 7de515900ebc97140a80c9bba8298d9a, type: 3}
--- !u!4 &950693567131198107 stripped
Transform:
  m_CorrespondingSourceObject: {fileID: 1323062340953684478, guid: 7de515900ebc97140a80c9bba8298d9a,
    type: 3}
  m_PrefabInstance: {fileID: 2264744309706660709}
  m_PrefabAsset: {fileID: 0}
