%YAML 1.1
%TAG !u! tag:unity3d.com,2011:
--- !u!1001 &7617674310832703638
PrefabInstance:
  m_ObjectHideFlags: 0
  serializedVersion: 2
  m_Modification:
    m_TransformParent: {fileID: 0}
    m_Modifications:
    - target: {fileID: 6642078412611601684, guid: 4ab51254037a3ab4bb48fdff01e1a917,
        type: 3}
      propertyPath: m_PropertySheet.m_Vector4f.m_Array.Array.size
      value: 1
      objectReference: {fileID: 0}
    - target: {fileID: 6642078412611601684, guid: 4ab51254037a3ab4bb48fdff01e1a917,
        type: 3}
      propertyPath: m_PropertySheet.m_Vector4f.m_Array.Array.data[0].m_Name
      value: Color
      objectReference: {fileID: 0}
    - target: {fileID: 6642078412611601684, guid: 4ab51254037a3ab4bb48fdff01e1a917,
        type: 3}
      propertyPath: m_PropertySheet.m_Vector4f.m_Array.Array.data[0].m_Value.x
      value: 15.999998
      objectReference: {fileID: 0}
    - target: {fileID: 6642078412611601684, guid: 4ab51254037a3ab4bb48fdff01e1a917,
        type: 3}
      propertyPath: m_PropertySheet.m_Vector4f.m_Array.Array.data[0].m_Value.y
      value: 0.83769625
      objectReference: {fileID: 0}
    - target: {fileID: 6642078412611601684, guid: 4ab51254037a3ab4bb48fdff01e1a917,
        type: 3}
      propertyPath: m_PropertySheet.m_Vector4f.m_Array.Array.data[0].m_Value.z
      value: 0.83769625
      objectReference: {fileID: 0}
    - target: {fileID: 6642078412611601684, guid: 4ab51254037a3ab4bb48fdff01e1a917,
        type: 3}
      propertyPath: m_PropertySheet.m_Vector4f.m_Array.Array.data[0].m_Overridden
      value: 1
      objectReference: {fileID: 0}
    - target: {fileID: 6642078414352266664, guid: 4ab51254037a3ab4bb48fdff01e1a917,
        type: 3}
      propertyPath: m_Name
      value: Particles_BulletHit_Ennemy
      objectReference: {fileID: 0}
    - target: {fileID: 6642078414352266671, guid: 4ab51254037a3ab4bb48fdff01e1a917,
        type: 3}
      propertyPath: m_RootOrder
      value: 0
      objectReference: {fileID: 0}
    - target: {fileID: 6642078414352266671, guid: 4ab51254037a3ab4bb48fdff01e1a917,
        type: 3}
      propertyPath: m_LocalPosition.x
      value: 0
      objectReference: {fileID: 0}
    - target: {fileID: 6642078414352266671, guid: 4ab51254037a3ab4bb48fdff01e1a917,
        type: 3}
      propertyPath: m_LocalPosition.y
      value: 0
      objectReference: {fileID: 0}
    - target: {fileID: 6642078414352266671, guid: 4ab51254037a3ab4bb48fdff01e1a917,
        type: 3}
      propertyPath: m_LocalPosition.z
      value: 0
      objectReference: {fileID: 0}
    - target: {fileID: 6642078414352266671, guid: 4ab51254037a3ab4bb48fdff01e1a917,
        type: 3}
      propertyPath: m_LocalRotation.w
      value: 1
      objectReference: {fileID: 0}
    - target: {fileID: 6642078414352266671, guid: 4ab51254037a3ab4bb48fdff01e1a917,
        type: 3}
      propertyPath: m_LocalRotation.x
      value: 0
      objectReference: {fileID: 0}
    - target: {fileID: 6642078414352266671, guid: 4ab51254037a3ab4bb48fdff01e1a917,
        type: 3}
      propertyPath: m_LocalRotation.y
      value: 0
      objectReference: {fileID: 0}
    - target: {fileID: 6642078414352266671, guid: 4ab51254037a3ab4bb48fdff01e1a917,
        type: 3}
      propertyPath: m_LocalRotation.z
      value: 0
      objectReference: {fileID: 0}
    - target: {fileID: 6642078414352266671, guid: 4ab51254037a3ab4bb48fdff01e1a917,
        type: 3}
      propertyPath: m_LocalEulerAnglesHint.x
      value: 0
      objectReference: {fileID: 0}
    - target: {fileID: 6642078414352266671, guid: 4ab51254037a3ab4bb48fdff01e1a917,
        type: 3}
      propertyPath: m_LocalEulerAnglesHint.y
      value: 0
      objectReference: {fileID: 0}
    - target: {fileID: 6642078414352266671, guid: 4ab51254037a3ab4bb48fdff01e1a917,
        type: 3}
      propertyPath: m_LocalEulerAnglesHint.z
      value: 0
      objectReference: {fileID: 0}
    m_RemovedComponents: []
  m_SourcePrefab: {fileID: 100100000, guid: 4ab51254037a3ab4bb48fdff01e1a917, type: 3}
