%YAML 1.1
%TAG !u! tag:unity3d.com,2011:
--- !u!1001 &2808910306008030781
PrefabInstance:
  m_ObjectHideFlags: 0
  serializedVersion: 2
  m_Modification:
    m_TransformParent: {fileID: 0}
    m_Modifications:
    - target: {fileID: 150573501671695116, guid: 1fa18fd5759151c42b071a1fda96061e,
        type: 3}
      propertyPath: m_RootOrder
      value: 0
      objectReference: {fileID: 0}
    - target: {fileID: 150573501671695116, guid: 1fa18fd5759151c42b071a1fda96061e,
        type: 3}
      propertyPath: m_LocalPosition.x
      value: 0
      objectReference: {fileID: 0}
    - target: {fileID: 150573501671695116, guid: 1fa18fd5759151c42b071a1fda96061e,
        type: 3}
      propertyPath: m_LocalPosition.y
      value: 0
      objectReference: {fileID: 0}
    - target: {fileID: 150573501671695116, guid: 1fa18fd5759151c42b071a1fda96061e,
        type: 3}
      propertyPath: m_LocalPosition.z
      value: 0
      objectReference: {fileID: 0}
    - target: {fileID: 150573501671695116, guid: 1fa18fd5759151c42b071a1fda96061e,
        type: 3}
      propertyPath: m_LocalRotation.w
      value: 1
      objectReference: {fileID: 0}
    - target: {fileID: 150573501671695116, guid: 1fa18fd5759151c42b071a1fda96061e,
        type: 3}
      propertyPath: m_LocalRotation.x
      value: 0
      objectReference: {fileID: 0}
    - target: {fileID: 150573501671695116, guid: 1fa18fd5759151c42b071a1fda96061e,
        type: 3}
      propertyPath: m_LocalRotation.y
      value: 0
      objectReference: {fileID: 0}
    - target: {fileID: 150573501671695116, guid: 1fa18fd5759151c42b071a1fda96061e,
        type: 3}
      propertyPath: m_LocalRotation.z
      value: 0
      objectReference: {fileID: 0}
    - target: {fileID: 150573501671695116, guid: 1fa18fd5759151c42b071a1fda96061e,
        type: 3}
      propertyPath: m_LocalEulerAnglesHint.x
      value: 0
      objectReference: {fileID: 0}
    - target: {fileID: 150573501671695116, guid: 1fa18fd5759151c42b071a1fda96061e,
        type: 3}
      propertyPath: m_LocalEulerAnglesHint.y
      value: 0
      objectReference: {fileID: 0}
    - target: {fileID: 150573501671695116, guid: 1fa18fd5759151c42b071a1fda96061e,
        type: 3}
      propertyPath: m_LocalEulerAnglesHint.z
      value: 0
      objectReference: {fileID: 0}
    - target: {fileID: 6610067095364184607, guid: 1fa18fd5759151c42b071a1fda96061e,
        type: 3}
      propertyPath: m_Materials.Array.data[0]
      value: 
      objectReference: {fileID: 2100000, guid: 9d0717cdb9e54cb44837e4dc61f73a5c, type: 2}
    - target: {fileID: 7163645198829660963, guid: 1fa18fd5759151c42b071a1fda96061e,
        type: 3}
      propertyPath: m_Name
      value: EnnemyBullet
      objectReference: {fileID: 0}
    - target: {fileID: 9137135902965340672, guid: 1fa18fd5759151c42b071a1fda96061e,
        type: 3}
      propertyPath: m_Radius
      value: 0.5
      objectReference: {fileID: 0}
    m_RemovedComponents: []
  m_SourcePrefab: {fileID: 100100000, guid: 1fa18fd5759151c42b071a1fda96061e, type: 3}
