%YAML 1.1
%TAG !u! tag:unity3d.com,2011:
--- !u!1001 &6658969973701586904
PrefabInstance:
  m_ObjectHideFlags: 0
  serializedVersion: 2
  m_Modification:
    m_TransformParent: {fileID: 0}
    m_Modifications:
    - target: {fileID: 1602973054967884597, guid: a4add05a235e0f84ba1a7ba249f1453e,
        type: 3}
      propertyPath: m_Name
      value: ShotGun
      objectReference: {fileID: 0}
    - target: {fileID: 2054687724854027388, guid: a4add05a235e0f84ba1a7ba249f1453e,
        type: 3}
      propertyPath: nom
      value: "Fusil \xE0 Pompe"
      objectReference: {fileID: 0}
    - target: {fileID: 2054687724854027388, guid: a4add05a235e0f84ba1a7ba249f1453e,
        type: 3}
      propertyPath: speed
      value: 30
      objectReference: {fileID: 0}
    - target: {fileID: 2054687724854027388, guid: a4add05a235e0f84ba1a7ba249f1453e,
        type: 3}
      propertyPath: cooldown
      value: 0.9
      objectReference: {fileID: 0}
    - target: {fileID: 2054687724854027388, guid: a4add05a235e0f84ba1a7ba249f1453e,
        type: 3}
      propertyPath: maxRange
      value: 8
      objectReference: {fileID: 0}
    - target: {fileID: 2054687724854027388, guid: a4add05a235e0f84ba1a7ba249f1453e,
        type: 3}
      propertyPath: description
      value: "- Gros D\xE9g\xE2ts \xE0 courte port\xE9e\n- 8 Tirs avec dispersion\n-
        Gros cooldown"
      objectReference: {fileID: 0}
    - target: {fileID: 2369767751050323600, guid: a4add05a235e0f84ba1a7ba249f1453e,
        type: 3}
      propertyPath: m_RootOrder
      value: 0
      objectReference: {fileID: 0}
    - target: {fileID: 2369767751050323600, guid: a4add05a235e0f84ba1a7ba249f1453e,
        type: 3}
      propertyPath: m_LocalPosition.x
      value: 0
      objectReference: {fileID: 0}
    - target: {fileID: 2369767751050323600, guid: a4add05a235e0f84ba1a7ba249f1453e,
        type: 3}
      propertyPath: m_LocalPosition.y
      value: 0
      objectReference: {fileID: 0}
    - target: {fileID: 2369767751050323600, guid: a4add05a235e0f84ba1a7ba249f1453e,
        type: 3}
      propertyPath: m_LocalPosition.z
      value: 0
      objectReference: {fileID: 0}
    - target: {fileID: 2369767751050323600, guid: a4add05a235e0f84ba1a7ba249f1453e,
        type: 3}
      propertyPath: m_LocalRotation.w
      value: 1
      objectReference: {fileID: 0}
    - target: {fileID: 2369767751050323600, guid: a4add05a235e0f84ba1a7ba249f1453e,
        type: 3}
      propertyPath: m_LocalRotation.x
      value: 0
      objectReference: {fileID: 0}
    - target: {fileID: 2369767751050323600, guid: a4add05a235e0f84ba1a7ba249f1453e,
        type: 3}
      propertyPath: m_LocalRotation.y
      value: 0
      objectReference: {fileID: 0}
    - target: {fileID: 2369767751050323600, guid: a4add05a235e0f84ba1a7ba249f1453e,
        type: 3}
      propertyPath: m_LocalRotation.z
      value: 0
      objectReference: {fileID: 0}
    - target: {fileID: 2369767751050323600, guid: a4add05a235e0f84ba1a7ba249f1453e,
        type: 3}
      propertyPath: m_LocalEulerAnglesHint.x
      value: 0
      objectReference: {fileID: 0}
    - target: {fileID: 2369767751050323600, guid: a4add05a235e0f84ba1a7ba249f1453e,
        type: 3}
      propertyPath: m_LocalEulerAnglesHint.y
      value: 0
      objectReference: {fileID: 0}
    - target: {fileID: 2369767751050323600, guid: a4add05a235e0f84ba1a7ba249f1453e,
        type: 3}
      propertyPath: m_LocalEulerAnglesHint.z
      value: 0
      objectReference: {fileID: 0}
    - target: {fileID: 2602573461611498506, guid: a4add05a235e0f84ba1a7ba249f1453e,
        type: 3}
      propertyPath: nbBullets
      value: 8
      objectReference: {fileID: 0}
    - target: {fileID: 2602573461611498506, guid: a4add05a235e0f84ba1a7ba249f1453e,
        type: 3}
      propertyPath: flatDispersion
      value: 60
      objectReference: {fileID: 0}
    - target: {fileID: 2602573461611498506, guid: a4add05a235e0f84ba1a7ba249f1453e,
        type: 3}
      propertyPath: randomDispersion
      value: 10
      objectReference: {fileID: 0}
    - target: {fileID: 2750929885776274148, guid: a4add05a235e0f84ba1a7ba249f1453e,
        type: 3}
      propertyPath: quantity
      value: 10
      objectReference: {fileID: 0}
    m_RemovedComponents: []
  m_SourcePrefab: {fileID: 100100000, guid: a4add05a235e0f84ba1a7ba249f1453e, type: 3}
